{
  "images" : [
    {
      "idiom" : "universal",
      "filename" : "edit profile@1x.png",
      "scale" : "1x"
    },
    {
      "idiom" : "universal",
      "filename" : "edit profile@2x.png",
      "scale" : "2x"
    },
    {
      "idiom" : "universal",
      "filename" : "edit profile@3x_2.png",
      "scale" : "3x"
    },
    {
      "idiom" : "iphone",
      "scale" : "1x"
    },
    {
      "idiom" : "iphone",
      "filename" : "editprofile@2x.png",
      "scale" : "2x"
    },
    {
      "idiom" : "iphone",
      "scale" : "3x"
    }
  ],
  "info" : {
    "version" : 1,
    "author" : "xcode"
  }
}